"id";"short_name";"price";"visible";"category_id"
"1";"Веб камера A4Tech A4-PK-5 CMOS 640x480 0.3Мп USB серебряный черный";"25.00";"true";"1"
"2";"Автомобильное З/У Borofone BZ12 2USB 2.4A белый / КИТАЙ";"9.00";"true";"2"
"3";"Автомобильное ЗУ BOROFONE BZ12A \(1USB: QC3.0\) цвет: белый";"9.00";"true";"2"
"4";"Автомобильные зарядные устройства Prime Line 2 USB, 2,1A, черный, арт,2211";"8.00";"true";"2"
"5";"Автомобильные зарядные устройства Prime Line USB Type-C, 2,1A, черный, арт, 2217";"11.00";"true";"2"
"6";"Арт. БЛ05189 , Адаптер/блок питания автомобильный ROBITON PN800S 800мА BL1";"23.00";"true";"2"
"7";"FM-трансмиттер Borofone BC26 2USB microSD bluetooth 4.2 черный \(1/30/120\)";"40.00";"true";"2"
"8";"Perfeo-505 Автодержатель для смартфона/навигатора/ до6 /на стекло/прищепка/черный/Promo; страна вво";"12.00";"true";"2"
"9";"Perfeo-707 Автодержатель для планшета 6 - 8 / на стекло/ пластик/ черный /40, 4607147638446";"19.00";"true";"2"
"10";"Автомобильное зарядное устройство Ritmix 2121";"11.00";"true";"2"
"11";"Автомобильный держатель для телефона в вент.решетку Gravity, алюмин.сплав, диаг. до 6,8 \(SBCH-5002\)";"15.00";"true";"2"
"12";"Автомобильный держатель для телефона в вент.решетку One Joint, , диаг. до 6,8 \(SBCH-5001\)";"15.00";"true";"2"
"13";"Автомобильный держатель для телефона на присоске Gravity, с гибкой ножкой, диаг. до 6,8 \(SBCH-5000\)";"19.00";"true";"2"
"14";"Автомобильный магнитный держатель BQ-H003 черный";"14.00";"true";"2"
"15";"АЗУ BLAST BCA-031, 3xUSB, 4100 mA";"14.00";"true";"2"
"16";"АЗУ BLAST BCA-121, 1 разъем+2USB, 2000-5000 mA";"11.00";"true";"2"
"17";"Держатель авто Москва";"9.00";"true";"2"
"18";"Держатель для мобильных устройств BLAST BCH-110 AirVent Magnet";"11.00";"true";"2"
"19";"Магнитный держатель для мобильных устройств BLAST BCH-111 AirVent Magnet";"13.50";"true";"2"
"20";"Адаптер-переходник Mirex HDMI \(M\) - DVI \(F\) \(13700-AHDMDVF3\)";"6.00";"true";"3"
"21";"Bluetooth LY-20 USB арт.104";"20.00";"true";"3"
"22";"Адаптер Lightning\(8Pin\) - microUSB BLAST BMC-606 белый, 480 Мбит/с, 4,8-5,5 В, 3A, блистер";"6.00";"true";"3"
"23";"Адаптер Perfeo USB adapter with Type-C \(PF-VI-O006 Black\) чёрный, 4630033942709";"7.00";"true";"3"
"24";"Адаптер беспроводной WI-FI WUA600NM";"17.00";"true";"3"
"25";"Адаптер беспроводной WI-FI с Антенной 802.11N";"19.00";"true";"3"
"26";"Усилитель Wi-Fi Беспроводной маршрутизатор WiFi Repeater Wireless-N";"45.00";"true";"3"
"27";"Арт. 4106229491, Батарейки VARTA ENERGY AA бл. 10 \(рус.\)";"1.60";"true";"4"
"28";"Арт. Б0018717, Элемент питания Kodak CR2032-5BL";"2.00";"true";"4"
"29";"Арт. Б0029112, Элемент питания Kodak CR1620-1BL";"2.30";"true";"4"
"30";"Арт. Б11745 , Ergolux LR03 Alkaline BP-12 \(LR03 BP-12, батарейка,1.5В\)";"1.00";"true";"4"
"31";"Арт. Б11749 , Ergolux LR6 Alkaline BP-12 \(LR6 BP-12, батарейка,1.5В\)";"1.00";"true";"4"
"32";"Арт. Б11752 , Ergolux..LR20 Alkaline BL-2 \(LR20 BL-2, батарейка,1.5В\)";"5.90";"true";"4"
"33";"Арт. Б12296, Ergolux LR23A BL-5 \(A23-BP5, батарейка,12В\)";"1.80";"true";"4"
"34";"Арт. Б12297 , Ergolux LR27A BL-5 \(A27-BP5, батарейка,12В\)";"1.50";"true";"4"
"35";"Арт. БЛ13150 , Элемент питания Energizer MAX+Power Seal LR03 BL2";"1.50";"true";"4"
"36";"Арт. БЛ14371, Элемент питания RENATA CR2032 BL1";"2.90";"true";"4"
"37";"Арт. БЛ14472, Элемент питания RENATA CR2016 BL1";"2.90";"true";"4"
"38";"Батарейка Camelion LR03-SP4 60/1200 12553";"1.20";"true";"4"
"39";"Батарейка Camelion LR6-SP4 60/720 12554";"1.20";"true";"4"
"40";"Ergolux 6LR61 Alkaline BL-1 \(6LR61 BL-1, батарейка,9В\)";"5.90";"true";"4"
"41";"powerbank PZX C116 7200 mah цвет черный";"27.00";"true";"4"
"42";"Арт. 30-1037, Батарейка REXANT LR66,AG4,LR626,G4,177,GP77A,377,SR626W";"0.30";"true";"4"
"43";"Арт. 4103229491, Батарейки VARTA ENERGY AAA бл. 10 \(рус.\)";"1.60";"true";"4"
"44";"Арт. 4122229411, Батарейки VARTA ENERGY 9V бл. 1Крона";"6.60";"true";"4"
"45";"Арт. Б0008960, Элемент питания Kodak MAX LR03-12BL \(K3A-12\)";"1.40";"true";"4"
"46";"Арт. Б0018715, Элемент питания Kodak CR2016-5BL";"1.90";"true";"4"
"47";"Батарейка Camelion A23-BP5 Mercury Free \(без ртути\) 50/1800";"2.80";"true";"4"
"48";"Батарейка Camelion AG4-BP10 Mercury Free \(без ртути\) 100/3600";"0.80";"true";"4"
"49";"Батарейка Camelion CR1620-BP1 10/1800";"2.50";"true";"4"
"50";"Батарейка Energizer MAX+Power Seal LR03/AAA BP4 /48 / СИНГАПУР";"2.00";"true";"4"
"51";"Батарейка Kodak LR6-4BL XTRALIFE \[KAA-4\] /115 \(30952027\)";"1.40";"true";"4"
"52";"Батарейка алкалиновая Smartbuy LR14/2B \(12/192\) \(SBBA-C02B\)";"2.80";"true";"4"
"53";"Батарейка алкалиновая Smartbuy LR20/2B \(12/96\) \(SBBA-D02B\)";"5.30";"true";"4"
"54";"Батарейки Duracell AAA";"1.80";"true";"4"
"55";"Батарея щелочная Mirex LR44 1,5V Блистер 10 шт \(LR44-E10\)";"0.80";"true";"4"
"56";"Батарея щелочная Mirex LR626 1,5V Блистер 10 шт \(LR626-E10\)";"0.80";"true";"4"
"57";"Арт. БЛ08794 , Аккумулятор ROBITON 600MHAAA-2 BL2 4607075942462";"3.50";"true";"5"
"58";"Арт. БЛ13561 , Аккумулятор ROBITON 1100MHAAA SR2, в упак 50 шт 4607075947368";"6.00";"true";"5"
"59";"Арт. БЛ13902, Аккумулятор ROBITON 1300MHAA-2 DECT BL2";"6.00";"true";"5"
"60";"Арт. БЛ8793, Аккумулятор ROBITON 2500MHAA-2 BL2";"10.00";"true";"5"
"61";"Аккум. LG INR18650ZTW2 B2000mAh с защитой Li-Ion в пластиковом боксе по 2шт,";"9.00";"true";"5"
"62";"Аккумулятор Smartbuy LI18650-2200 mAh \(10/100\) \(SBBR-18650-1B2200\)";"10.00";"true";"5"
"63";"Внешний аккумулятор \(Power bank\) SmartBuy S-10000UT, 2.1A, 2\*USB, ULTRA THIN, черный \(SBPB-860\)/48";"37.00";"true";"5"
"64";"Внешний аккумулятор \(Powerbank\) Perfeo 10000 mah + Кабель Micro usb/Out USB 1А, 2,1А/белый";"39.00";"true";"5"
"65";"Арт. БЛ15696, Адаптер/блок питания ROBITON IR9-9W 5,5x2,5/12 \(+\)";"21.00";"true";"6"
"66";"Арт. БЛ17733, Адаптер/блок питания ROBITON B6-500 5,5x2,5/12 \(кор. 50 шт\)";"17.50";"true";"6"
"67";"Блок питания 12B,2A / КИТАЙ";"18.00";"true";"6"
"68";"Блок питания для антенны AC220V/DC12V / КИТАЙ";"8.00";"true";"6"
"69";"Блок питания для антенны AC220V/DC12V с регулятором / КИТАЙ";"4.50";"true";"6"
"70";"Блок питания для рессивера,5B,2A / КИТАЙ";"14.00";"true";"6"
"71";"510004Источник пост. напряжения с вилкой GDLI-48-А-IP20-12";"38.00";"true";"6"
"72";"LED RGB контроллер инфракрасный 24 кнопки, 2А IP20 \(SBL-RGB-28\); cтрана происхождения - Китай";"16.00";"true";"6"
"73";"Арт. 200-012-3 , Источник питания 110-220V AC-12V DC, 1А, 12W с DC разъемом подключен";"15.00";"true";"6"
"74";"Арт. БЛ17517, Адаптер/блок питания ROBITON B9-1000 \(1\) 5,5x2,5/12";"26.00";"true";"6"
"75";"Арт. БЛ17518, Адаптер/блок питания ROBITON B9-500 5,5х2,1/12";"19.00";"true";"6"
"76";"Блок питания 12B,1A 2.1/5.5 мм";"12.00";"true";"6"
"77";"Блок питания для ZALA HD-EU144 \(12v/1.2A\) разъем 35x1,35";"13.00";"true";"6"
"78";"Внешний блок питания для ноутбуков Xilence 90W \(SPS-XP-LP90.XM010\)";"95.00";"true";"6"
"79";"Драйвер \(LED\) IP20-60W для LED ленты \(SBL-IP20-Driver-60W\); cтрана происхождения - Китай";"32.00";"true";"6"
"80";"Арт. 13965, ERGOLUX ELX-HT02-C42 серебр. \(триммер для носа и ушей, 1\*AA, 1.5В\)";"45.00";"true";"7"
"81";"Бритва Centek CT-2175 \(черн\)";"70.00";"true";"7"
"82";"Бритва Centek CT-2163 \(серебр\)";"65.00";"true";"7"
"83";"Бритва Centek CT-2163 \(серебр\)";"45.00";"true";"7"
"84";"Бритва Centek CT-2174 \(черн/хром\) cеточная";"38.00";"true";"7"
"85";"Бритва Centek CT-2176 \(черн/хром\)";"55.00";"true";"7"
"86";"Бритва Enchen Blackstone \(ES-1001\)";"55.00";"true";"7"
"87";"Бритва Evolution powered by Enchen Warrior";"58.00";"true";"7"
"88";"Бритва женская Centek CT-2193 \(золотистый\)";"36.00";"true";"7"
"89";"Бритва электрическая L'ORNAY LA-2302";"67.00";"true";"7"
"90";"Машинка для очистки ткани Centek CT-2470";"9.00";"true";"7"
"91";"Триммер Centek CT-2178 \(чёрн/хром\) 3 В 1";"14.00";"true";"7"
"92";"Электробритва Sakura SA-5414RB";"38.00";"true";"7"
"93";"Эпилятор Centek CT-2191 \(синий+белый\)";"65.00";"true";"7"
"94";"Арт. R003624, Весы кухонные электронные ENERGY EN-429 стекло, 5 кг";"34.00";"true";"8"
"95";"Арт. R004546, Весы напольные электронные HOMESTAR HS-6001H \(стеклянная поверхность, 180 кг\)";"38.00";"true";"8"
"96";"Стайлер ECON ECO-BH001C";"26.00";"true";"9"
"97";"Стайлер ECON ECO-BH002S";"43.00";"true";"9"
"98";"Выпрямитель Centek CT-2006";"68.00";"true";"9"
"99";"Выпрямитель Centek CT-2009";"25.00";"true";"9"
"100";"Выпрямитель Centek CT-2015 \(Черн/фиолет\)";"36.00";"true";"9"
"101";"Выпрямитель Centek CT-2023";"34.00";"true";"9"
"102";"Мультистайлер для волос 2 в 1 NORMANN AHS-765";"46.00";"true";"9"
"103";"Стайлер Centek CT-2076 \(черн/розов\)";"36.00";"true";"9"
"104";"Автоматический выключатель ВА 47-39 \(16А 1р С \) КС , арт. 80113";"5.30";"true";"10"
"105";"Автоматический выключатель ВА 47-39 \(20А 1р С \) КС , арт. 80114";"5.30";"true";"10"
"106";"Автоматический выключатель ВА 47-39 \(40А 2р С \) КС , арт. 80414";"9.70";"true";"10"
"107";"Дифференциальный автомат 2р \( 16/ 30 ДА-8\) КС , арт. 82603";"21.00";"true";"10"
"108";"Арт. 6931474702586, Сетевое З/У Borofone BA19A 1USB черный \(1/65/260\)";"6.00";"true";"11"
"109";"Арт. 6931474703996, Сетевое З/У Borofone BA23A 2USB 2.4A белый \(1/48/288\)";"8.00";"true";"11"
"110";"Сетевое зарядное устройство HOCO C12 2USB 2.4A ,черный / КИТАЙ";"13.00";"true";"11"
"111";"Сетевое зарядное устройство HOCO C12 2USB 2.4A с кабелем Lightning,черный / КИТАЙ";"19.00";"true";"11"
"112";"Сетевое зарядное устройство Qumo Energy, Micro USB cable, цвет черный \(арт.20781\)";"16.00";"true";"11"
"113";"ЗУ для Ni-Mh/Ni-Cd аккумуляторов Smartbuy 503 автоматическое \(SBHC-503\)/80";"17.00";"true";"11"
"114";"ЗУ для Ni-Mh/Ni-Cd аккумуляторов Smartbuy 503 автоматическое \(SBHC-503\)/80; cтрана происхождения - К";"19.00";"true";"11"
"115";"ЗУ для Ni-Mh/Ni-Cd аккумуляторов Smartbuy 505 автоматическое \(SBHC-505\)/80; cтрана происхождения - К";"19.00";"true";"11"
"116";"ЗУ для аккумуляторных батареекSmartbuy SBHC-505/80";"21.00";"true";"11"
"117";"Сетевое З/У Borofone BA19A 1USB 1.0A с кабелем microUSB черный \(1/65/260\)";"8.50";"true";"11"
"118";"Сетевое З/У Borofone BA20A 1USB 2.1A белый \(1/65/260\)";"8.50";"true";"11"
"119";"СЗУ SmartBuy COLOR CHARGE, 2А, универсальное, 1хUSB, зеленое \(SBP-8040\)/100; страна происхождения -К";"7.00";"true";"11"
"120";"Арт. 16-0002-9, Зажим крокодил в изоляторе, длина 46 мм, ток 5A, \(2шт.\) \(пакет\) REXANT";"1.30";"true";"12"
"121";"Арт. 17-0202 , Шнур 3х3 RCA 1.5М REXANT4610003604509";"4.00";"true";"12"
"122";"Арт. 17-4202 , Шнур 3.5мм стерео штекер - 2 RCA 1.5М REXANT";"3.00";"true";"12"
"123";"Арт. 18-1114, Шнур USB-А \(male\) - USB-A \(female\) 1.8M REXANT";"6.50";"true";"12"
"124";"Арт. 18-1174 , Переходник штекер USB-A \(Male\) - штекер Mini USB \(Male\) REXANT";"4.00";"true";"12"
"185";"Арт. 18-3031 , Телефонный удлинитель 3М белый REXANT";"2.60";"true";"17"
"125";"Арт. 18-1182 , USB кабель OTG micro USB на USB шнур 0.15M черный REXANT";"4.50";"true";"12"
"126";"Кабель miniUSB Ritmix RCC-100";"4.00";"true";"12"
"127";"Кабель VS VGA/SVGA вилка - VGA-SVGA вилка \(V030\)";"16.00";"true";"12"
"128";"Шнур 3,5 мм. 4 конт. шт. - 3\*RCA\(тюльпан\) штекера 1.5м \(пластик-никель\) D3x2,6мм / КИТАЙ";"6.30";"true";"12"
"129";"Шнур 3.5мм Стерео штекер - 2\*RCA\(тюльпан\) штекера 1 м \(пластик-никель\) D2x2,6мм / КИТАЙ";"3.00";"true";"12"
"130";"Шнур 3\*RCA\(тюльпан\) штекера - 3\*RCA\(тюльпан\) штекера 1.2м \(пластик-никель\) D3x2,6мм / КИТАЙ";"4.00";"true";"12"
"131";"Шнур VGA штекер - VGA штекер 1.5м, OD5.5мм \(в ПЭ упаковке\) / КИТАЙ";"13.00";"true";"12"
"132";"Адаптер HDMI штекер VGA гнездо APP-52256";"24.00";"true";"12"
"133";"Арт. 17-6805, ПЕРЕХОДНИК гн.HDMI - шт.HDMI угловой GOLD REXANT";"11.00";"true";"12"
"134";"Арт. 18-1180, USB кабель OTG Type C на USB шнур 0.15 м белый";"11.00";"true";"12"
"135";"Кабель SCART - 3хRCA \(1,5 метра\)";"6.00";"true";"12"
"136";"Переходник USB OTG to Type-C USB YHL-T6";"7.00";"true";"12"
"137";"Сетевой компьютерный шнур 1,8 м \[1/100\]";"9.00";"true";"12"
"138";"СКАРТ штекер - 3xRCA\(тюльпан\) гнезда,с переключателем \(пластик-никель\) APP-185";"8.00";"true";"12"
"139";"Шнур питания для аудио техники \(CN-9086A\) 1,8 м \[10 !\]";"4.00";"true";"12"
"140";"Шнур СКАРТ штекер - 4\*RCA\(тюльпан\) штекера 1,5 м \(пластик-никель\) Аудио Стерео-Вх/вых, Видео-Вх/вых";"7.00";"true";"12"
"141";"USB - хаб KY-163 Type-C на 4 USB3,0; страна ввоза-РОССИЯ";"19.00";"true";"13"
"142";"USB 2.0 Xaб Smartbuy 4 порта SBHA6900 черный \(SBHA-6900-K\)";"11.00";"true";"13"
"143";"USB-хаб AndoшI на 4 порта, SUPPORT 500 GB ON/OF USB 2.0 Q-H4";"11.00";"true";"13"
"144";"Картридер Smartbuy 713, USB 2.0 - SD/microSD/MS/M2, белый \(SBR-713-W\)";"7.00";"true";"13"
"145";"Картридер Smartbuy 715, USB 2.0 - SD/microSD, красный \(SBR-715-R\)";"7.00";"true";"13"
"146";"Арт. 18-4010 , Аудио кабель AUX 3.5 мм шнур спираль 1M черный";"7.00";"true";"14"
"147";"AUX пружина Москва";"4.50";"true";"14"
"148";"PERFEO Кабель Jack 3.5 мм вилка - Jack 3.5 мм розетка, длина 3 м. \(J2202\) /30";"8.50";"true";"14"
"149";"АУКС Москва дорогой";"4.50";"true";"14"
"150";"Арт. 6931474700797, Кабель Borofone BX20 USB micro черный \(1/360\)";"5.00";"true";"15"
"151";"Арт. 6957531099499, Кабель Borofone BX16 USB \(m\)-microUSB \(m\) 1.0м 2.0A силикон черный \(1/648\)";"4.00";"true";"15"
"152";"Дата-кабель BOROFONE BX51 Type-C \(1м., 3.A\), цвет: белый";"4.00";"true";"15"
"153";"Кабель Borofone BX16 USB \(m\)-Type-C \(m\) 1.0м 2.0A силикон,белый / КИТАЙ";"7.00";"true";"15"
"154";"Кабель HOCO X1 USB \(m\)-microUSB \(m\) 1.0м 2.1A силикон белый / КИТАЙ";"4.50";"true";"15"
"155";"Кабель Ritmix RCC-120 белый";"4.00";"true";"15"
"156";"hoco Кабель X45 для Type-C на Type-C черный 1 метр";"12.00";"true";"15"
"157";"PERFEO Кабель для iPad/iPhone, USB - 30 PIN, длина 1 м. \(I4601\)/100";"6.00";"true";"15"
"158";"Дата-кабель Smartbuy USB - micro USB, карбон , экстрапрочный, 2.0 м, до 2А, синий \(iK-20n-2 blue\)";"8.00";"true";"15"
"159";"Дата-кабель Smartbuy USB - micro USB, нейлон, защ. от перелам., длина 3.0 м, 2А белый iK-302cm-2-k";"13.00";"true";"15"
"160";"Зар. универс. дата-кабель BLAST BMC-211 белый \(1м\), USB2.0-Lightning\(8Pin\), 480 Мбит/с, 4,8-5,5 В, п";"9.60";"true";"15"
"161";"Зар. универс. дата-кабель BLAST BMC-410 черный \(1м\), USB - Type-C, 480 Мбит/с, 4,8-5,5 В, пакет";"6.00";"true";"15"
"162";"Зар. универс. дата-кабель BLAST BMC-420 белый \(2м\), USB - Type-C, 480 Мбит/с, 4,8-5,5 В, пакет";"8.00";"true";"15"
"163";"Кабель Borofon BX 33 Micro 5 Ампер";"7.00";"true";"15"
"164";"кабель Micro 1 метр 2.4 Ампера Borofon BX51 черный";"4.00";"true";"15"
"165";"Кабель XIPIN LX18 Lightning, белый";"9.00";"true";"15"
"166";"кабель магнитный 3 в 1 Москва";"14.00";"true";"15"
"167";"Кабель Москва Type-c";"6.00";"true";"15"
"168";"Шнур оптический SC/APC-SC/APS-G657A1-3.0-PVC, 1 м; страна ввоза-РОССИЯ";"13.50";"true";"16"
"169";"Шнур оптический SC/APC-SC/APS-G657A1-3.0-PVC, 2 м; страна ввоза-РОССИЯ";"14.00";"true";"16"
"170";"Шнур оптический SC/APC-SC/APS-G657A1-3.0-PVC, 3 м; страна ввоза-РОССИЯ";"14.80";"true";"16"
"171";"Шнур оптический SC/APC-SC/APS-G657A1-3.0-PVC, 5 м; страна ввоза-РОССИЯ";"16.50";"true";"16"
"172";"Cоединитель оптоволоконного кабеля PVC-0";"3.00";"true";"16"
"173";"Шнур оптический SC/APC-SC/APS-G657A1-3.0-PVC, 10 метров";"18.00";"true";"16"
"174";"Шнур оптический SC/APC-SC/APS-G657A1-3.0-PVC, 15 метров";"20.00";"true";"16"
"175";"Шнур оптический SC/APC-SC/APS-G657A1-3.0-PVC, 20 метров";"22.00";"true";"16"
"176";"Шнур оптический SC/APC-SC/APS-G657A1-3.0-PVC, 7.5 метров";"16.50";"true";"16"
"177";"UTP патчкорд Кабель компьютерный сетевой 1:1 8р8с 15м";"15.00";"true";"17"
"178";"HDMI Кабель GM-HDMI-CCS-1,5m / КИТАЙ";"8.00";"true";"17"
"179";"HDMI Кабель GM-HDMI-CCS-2m / КИТАЙ";"13.00";"true";"17"
"180";"Арт. 18-1002-6, Пaтч-корд UTP кат. 5e, длина 1 метр, неэкранированный, серый \(CCA\) СМАРТКИП";"2.00";"true";"17"
"181";"Арт. 18-1005-6, Пaтч-корд UTP кат. 5e, длина 2 метра, неэкранированный, серый \(CCA\) СМАРТКИП";"2.30";"true";"17"
"182";"Арт. 18-1009-6 , Патч-корд UTP 5e кат. литой 10 м СМАРТКИП";"7.50";"true";"17"
"183";"Арт. 18-2021 , Шнур витой трубочный 2М телефонный белый REXANT";"2.50";"true";"17"
"184";"Арт. 18-3021 , Телефонный удлинитель 2М белый REXANT";"2.00";"true";"17"
"247";"Кофемолка Centek CT-1355 \(ЗОЛОТО\)";"63.00";"true";"22"
"186";"Арт. 18-3051 , Телефонный удлинитель 5М белый REXANT";"3.80";"true";"17"
"187";"Арт. 18-3071 , Телефонный удлинитель 7М белый REXANT";"5.00";"true";"17"
"188";"Арт. 18-3101 , Телефонный удлинитель 10М белый REXANT";"8.30";"true";"17"
"189";"Арт. 18-3151 , Телефонный удлинитель 15М белый REXANT";"10.50";"true";"17"
"190";"Арт. 18-3201 , Телефонный удлинитель 20М белый REXANT";"14.00";"true";"17"
"191";"PERFEO Патчкорд UTP кат.5е RJ-45 вилка - RJ-45 вилка, длина 20 м. \(P6009\) /8";"21.00";"true";"17"
"192";"UTP патчкорд 10 м / КИТАЙ";"12.50";"true";"17"
"193";"UTP патчкорд 5 м / КИТАЙ";"7.00";"true";"17"
"194";"Кабель HDMI+HDMI 10m";"32.00";"true";"17"
"195";"Патч-корд Dialog CN-0225 - длина 25 м";"25.00";"true";"17"
"196";"Патч-корд литой UTP Кат.5e 3м серый \(K-0930-100\)/100/";"4.20";"true";"17"
"197";"Патчкорд UTP кат. 5е, литой, многожильный, 7,5 м. \[10/46\]";"9.00";"true";"17"
"198";"Шнур HDMI штекер - HDMI штекер 0,7м\(без ферритов\) High Speed with Ethernet \(15+1 распайка\)30AWG \(пла";"8.00";"true";"17"
"199";"Игровая клавиатура Marvo K602";"37.00";"true";"18"
"200";"Клавиатура Qumo Daemon K40, проводная";"48.00";"true";"18"
"201";"Игровая клавиатура Marvo K328 - 120 кл, 16 кл мультимедиа";"30.00";"true";"18"
"202";"Игровая клавиатура Qumo Unicorn K01, проводная, 104 клавиш";"56.00";"true";"18"
"203";"Игровой набор Qumo Solaris K03/M10";"78.00";"true";"18"
"204";"Клавиатура KG-35U SILVER Nakatomi Gaming - игровая с подсветкой, корпус металл, USB, серебристая";"53.00";"true";"18"
"205";"Клавиатура беспроводная мультимедийная Smartbuy 206 черная \(SBK-206AG-K\)/20";"36.00";"true";"18"
"206";"Клавиатура беспроводная мультимедийная Smartbuy ONE 238 USB черная \(SBK-238AG-K\)/20; страна происхож";"34.00";"true";"18"
"207";"Клавиатура проводная мультимедийная Smartbuy ONE 237 USB черная \(SBK-237-K\)/20; cтрана происхождения";"16.00";"true";"18"
"208";"Комплект клавиатура+мышь Smartbuy 23335AG черный \(SBC-23335AG-K\) /10; страна происхождения -Китай";"54.00";"true";"18"
"209";"Комплект клавиатура+мышь Smartbuy ONE 212332AG черный \(SBC-212332AG-K\) /10";"49.00";"true";"18"
"210";"Игровой коврик Qumo Dead Army, 360\*270\*3 мм";"14.00";"true";"19"
"211";"Игровой коврик Qumo Deadly Salute, 280\*230\*3 мм";"10.00";"true";"19"
"212";"Коврик для мыши игровой 25х21; страна ввоза-РОССИЯ";"6.00";"true";"19"
"213";"Акустическая система Ritmix SP-2045 Black";"19.00";"true";"20"
"214";"Акустическая система Ritmix SP-2052w Black";"29.00";"true";"20"
"215";"Акустическая система Ritmix SP-2058 Black";"23.00";"true";"20"
"216";"Акустические колонки HAVIT HV-SK486, 3W\*2\(RMS\) 5v DC. Цвет белый";"15.00";"true";"20"
"217";"Колонки 2.0 Qumo Blade AS001";"40.00";"true";"20"
"218";"Портативная акустика SVEN PS-185 Black";"108.00";"true";"20"
"219";"Радиоприемник портативный Сигнал РП-222 черный/синий";"39.00";"true";"20"
"220";"FM-Радиоприемник Эфир 12";"38.00";"true";"20"
"221";"Акустическая система Dialog AST-15UP CHERRY - 2.0, 6W RMS, питание от USB";"29.00";"true";"20"
"222";"Акустическая система Dialog Colibri AC-202UP black-white";"34.00";"true";"20"
"223";"Мульт. мед. мини-аудио Perfeo ASPEN FM+ 87.5-108МГц/MP3/питание USB или 18650/ черный \(i20\)";"42.00";"true";"20"
"224";"Мульт. мед. мини-аудио Perfeo PALM FM+ 87.5-108МГц/MP3/ USB или 18650/ красный \(i90-RED\)";"39.00";"true";"20"
"225";"Радиоприемник Кипо Lux Bass 309";"38.00";"true";"20"
"226";"20. Будильник электронный зеркальный экран модель FF-588 с термометром со встроенным аккумулятор";"44.00";"true";"21"
"227";"MP3 проигрыватель Econ EBB-330";"98.00";"true";"21"
"228";"Колонка порт, Digma S-12 синий \(SP123BL\)";"28.00";"true";"21"
"229";"Колонка порт, Telefunken TF-PS1241B \(TF-PS1241B\(ROCK\)\)";"93.00";"true";"21"
"230";"Колонка порт, Telefunken TF-PS1241B черный";"89.00";"true";"21"
"231";"Портативная аудиосистема Econ EPS-55";"86.00";"true";"21"
"232";"Портативная аудиосистема Ritmix SP-120B черный";"25.00";"true";"21"
"233";"Акустическая система 2.0 SmartBuy BUGGY, 10 Вт, Bluetooth, MP3, FM-радио, фонарик \(арт.SBS-5110\)/16";"89.00";"true";"21"
"234";"Акустическая система Smartbuy RADIO ACTIVE, 10Вт, Bluetooth, FM+антенна, MP3, черн \(SBS-470\)/20";"67.00";"true";"21"
"235";"Акустическая система Smartbuy YOGA 2, 5Вт, Bluetooth, MP3, FM-радио, черная \(арт.SBS-5040\)/100";"39.00";"true";"21"
"236";"Беспроводная колонка Borofone BR12 \(Bluetooth 5.0, USB,AUX, microSD, FM,режим TWS,1200mAh\) цвет: син";"59.00";"true";"21"
"237";"Беспроводная колонка Borofone BR13 цвет: красный \(Bluetooth 5.0, USB,AUX,FM,1200mAh световой режим\)";"66.00";"true";"21"
"238";"Колонка портативная JBL CHARGE 2+";"39.00";"true";"21"
"239";"Колонка портативная JBL CHARGE mini 3+";"32.00";"true";"21"
"240";"Колонка портативная Диско Шар Bluetooth";"40.00";"true";"21"
"241";"Микрофон Детский";"25.00";"true";"21"
"242";"Мульт. мед. акус. система SB LOOP 2, 5Вт, Bluetooth, MP3, FM-радио, \(SBS-5060\)";"35.00";"true";"21"
"243";"Мульт. мед. акус. система SB LOOP, 5Вт, Bluetooth, MP3, FM-радио, \(SBS-5030\)";"35.00";"true";"21"
"244";"Портативная акустическая система Dialog Progressive AP-920 - 10W RMS, Bluetooth, FM+USB+SD reader";"96.00";"true";"21"
"245";"Портативная акустическая система Dialog Progressive AP-930 - 12W RMS, Bluetooth, FM+USB reader";"109.00";"true";"21"
"246";"Портативная колонка Ritmix SP-690B Black";"224.00";"true";"21"
"248";"Машинка для стрижки Rowenta TN1608F0";"79.00";"true";"23"
"249";"Машинка для стрижки Rowenta TN1609F0";"76.00";"true";"23"
"250";"Мультитриммер 7 в 1 Rowenta TN8930F0";"97.00";"true";"23"
"251";"Триммер Enchen Humming Bird \(EC-2001\)";"75.00";"true";"23"
"252";"Арт. 13136 , ERGOLUX ELX-LR01-C40 бело-голубой \(машинка для удаления катышков, 2x";"10.00";"true";"23"
"253";"Машинка для стрижки Centek CT-2103 \(черный/желтый\)";"37.00";"true";"23"
"254";"Машинка для стрижки Centek CT-2104 \(черн/синий\)";"34.00";"true";"23"
"255";"Машинка для стрижки Centek CT-2110 \(чёрный/золотой\)";"44.00";"true";"23"
"256";"Машинка для стрижки Centek CT-2122 \(синий/хром\)";"75.00";"true";"23"
"257";"Машинка для стрижки Centek CT-2124 \(черный/золото\)";"60.00";"true";"23"
"258";"Машинка для стрижки Centek CT-2134 \(чер/сталь\)";"34.00";"true";"23"
"259";"Машинка для стрижки Centek CT-2136 \(бежевый\)";"60.00";"true";"23"
"260";"Машинка для стрижки Centek CT-2137 серый";"69.00";"true";"23"
"261";"Машинка для стрижки волос NORMANN AHС-561";"56.00";"true";"23"
"262";"Машинка для стрижки волос NORMANN AHС-563";"34.00";"true";"23"
"263";"Набор для стрижки Centek CT-2132";"89.00";"true";"23"
"264";"Набор для стрижки Centek CT-2133 Black";"68.00";"true";"23"
"265";"Триммерный набор Centek CT-2177 \(чёрн/хром\)";"18.00";"true";"23"
"266";"Блендер Centek CT-1331 \(белый/серый\)";"35.00";"true";"24"
"267";"Блендер Centek CT-1344 White";"40.00";"true";"24"
"268";"Джойстик Ritmix GP-004 Black";"25.00";"true";"25"
"269";"Игровая мышь Qumo Assassin M33, проводная";"30.00";"true";"25"
"270";"Мышь Qumo Office M14, проводная, оптическая, черная";"7.00";"true";"25"
"271";"Арт. 23751-G909+G1, Комплект MARVO G909+G1: мышь игровая проводная, 8 кн + коврик для мыши, 287x244x";"48.00";"true";"25"
"272";"Геймпад GP-A13 Dialog Action - вибрация, 12 кнопок, USB, черно-красный";"38.00";"true";"25"
"273";"Мышки беспроводные разноцветные Москва";"13.00";"true";"25"
"274";"Мышь MGK-05U Dialog Gan-Kata - игровая, 4 кнопки + ролик прокрутки, USB, черная";"16.00";"true";"25"
"275";"Мышь MON-04U BLACK Nakatomi Navigator Optical - 3 кнопки + ролик прокрутки, USB";"10.00";"true";"25"
"276";"Мышь Qumo Solaris M10 + коврик, игровая";"29.00";"true";"25"
"277";"Мышь беспроводная Smartbuy ONE 352 зелено-черная \(SBM-352AG-GK\) / 60";"13.00";"true";"25"
"278";"Мышь беспроводная Smartbuy ONE 352 красно-черная \(SBM-352AG-RK\) / 60";"13.00";"true";"25"
"279";"Мышь беспроводная Smartbuy ONE 352 сине-черная \(SBM-352AG-BK\) / 60";"13.00";"true";"25"
"280";"Мышь беспроводная Smartbuy ONE 378 серая \(SBM-378AG-G\) / 40";"14.00";"true";"25"
"281";"Мышь беспроводная Smartbuy ONE 378 синяя \(SBM-378AG-B\) / 40";"14.00";"true";"25"
"282";"Мышь беспроводная беззвучная Smartbuy 612AG красная, Blue LED \(SBM-612AG-RK\)/40/";"22.00";"true";"25"
"283";"Мышь беспроводная беззвучная Smartbuy 612AG синяя, Blue LED \(SBM-612AG-BK\)/40/";"22.00";"true";"25"
"284";"Мышь беспроводная с зарядкой от USB Smartbuy ONE 344CAG черно-красная \(SBM-344CAG-KR\) /40/";"26.00";"true";"25"
"285";"Арт. 23750-S800WBK, Наушники проводные BYZ S800W вкладыши с микрофоном, 1,2 метра, черный";"9.00";"true";"26"
"286";"Арт. 6931474708281, Наушники полноразмерные HOCO W21 с микрофоном черный \(1/40\)";"32.00";"true";"26"
"287";"Арт. Б0018587, 333458 Intro RX-190 вкладыши черные 5055945524444";"5.00";"true";"26"
"288";"Беспроводные наушники Borofone BO4 полноразмерные с микрофоном цвет:черный";"45.00";"true";"26"
"289";"Гарнитура Qumo Flex GHS 0003, с микрофоном";"45.00";"true";"26"
"290";"Гарнитура Qumo Stealth GHS 0013";"42.00";"true";"26"
"291";"Гарнитура Qumo Topaz GHS 0011, с микрофоном";"38.00";"true";"26"
"292";"Наушники Borofone BM30 черный \(1/60/240\)";"12.00";"true";"26"
"293";"Наушники Ritmix RH-501";"15.00";"true";"26"
"294";"Наушники Ritmix RH-512M";"18.00";"true";"26"
"295";"Наушники Ritmix RH-605M Black";"28.00";"true";"26"
"296";"Bluetooth гарнитура Qumo Accord 3 черно-красный";"88.00";"true";"26"
"297";"Bluetooth наушники DA DM0007BE, голубые";"38.00";"true";"26"
"298";"Арт. 23751-H8321P, Игровые наушники MARVO H8321P с микрофоном, проводные полноразмерные, 2 метра,";"38.00";"true";"26"
"299";"Арт. 23751-HG8901, Наушники игровые MARVO HG8901 с микрофоном, проводные, полноразмерные, 2,1 метра,";"66.00";"true";"26"
"300";"Арт. 23751-HG8928, Наушники игровые MARVO HG8928 с микрофоном, проводные, полноразмерные, 2 метра,";"74.00";"true";"26"
"301";"Гарнитура Nakatomi HS-T50MV со стереонаушниками и регулятором громкости.";"38.00";"true";"26"
"302";"Гарнитура Qumo Excellence Gray BT 0032, BT беспроводная, съемный микрофон";"95.00";"true";"26"
"303";"Гарнитура Qumo Genesis GHS 0012, с микрофоном";"72.00";"true";"26"
"304";"Гарнитура Qumo HALO GHS0018";"58.00";"true";"26"
"305";"Гарнитура Qumo Protector GHS 0015, с микрофоном";"89.00";"true";"26"
"306";"Игровая гарнитура Marvo HG8932";"75.00";"true";"26"
"307";"Наушники BLAST BAH-221 черные, вставки, 10-28 000 Гц, 32Ом, кабель - 1,2м, прямой штекер, блистер";"7.00";"true";"26"
"308";"Полноразмерная игровая стереогарнитура SmartBuy PLATOON \(SBH-8400\)/20; страна происхождения -Китай";"48.00";"true";"26"
"309";"Полноразмерная стерео гарнитура SmartBuy COMMANDO, рег.громк, кабель 2.1м \(арт.SBH-7000\)/20; страна";"33.00";"true";"26"
"383";"Приставка для цифрового телевидения Pantesat HD-3820 T2";"53.00";"true";"28"
"310";"Полноразмерные наушники SmartBuy® LIVE!, 4м кабель, 50мм динамики, белые \(арт.SBE-7100\)/20; страна п";"46.00";"true";"26"
"311";"Полноразмерные наушники SmartBuy® LIVE!, 4м кабель, 50мм динамики, черные.\(арт.SBE-7000\)/20; страна";"46.00";"true";"26"
"312";"LED Гирлянда Smartbuy с контроллером, RGB, 8м, 120 диодов, IP44, прозрачный провод \(SB-RGBIP44-8m\)";"16.00";"true";"27"
"313";"Усилитель антенный Плата";"7.00";"true";"28"
"314";"ПДУ Huayu Samsung RM-L919 универсальный пульт / КИТАЙ";"11.00";"true";"28"
"315";"ПДУ HORIZONT/Shivaki YC53-215A / КИТАЙ";"10.00";"true";"28"
"316";"ПДУ HUAYU HL-695E обучаемый / КИТАЙ";"12.80";"true";"28"
"317";"ПДУ Huayu LG RM-L1162 3D LED TV с функцией SMART универсальный пульт / КИТАЙ";"10.30";"true";"28"
"318";"ПДУ Huayu LG RM-L859 универсальный пульт / КИТАЙ";"8.80";"true";"28"
"319";"ПДУ Huayu LG RM-L915 + универсальный пульт / КИТАЙ";"11.00";"true";"28"
"320";"ПДУ Huayu LG RM-L930+ 3D универсальный пульт / КИТАЙ";"8.00";"true";"28"
"321";"ПДУ Huayu LG RM-L999+ 1 LCD TV 3D универсальный пульт / КИТАЙ";"16.40";"true";"28"
"322";"ПДУ Huayu Panasonic RM-D1170 универсальный пульт / КИТАЙ";"16.40";"true";"28"
"323";"ПДУ Huayu Panasonic RM-D920+3D LED TV универсальный пульт / КИТАЙ";"12.80";"true";"28"
"324";"ПДУ Huayu Philips RM-D1110 универсальный пульт / КИТАЙ";"12.00";"true";"28"
"325";"ПДУ Huayu Philips RM-L1125 3D универсальный пульт / КИТАЙ";"12.00";"true";"28"
"326";"ПДУ Huayu Samsung RM-D1078+ универсальный пульт / КИТАЙ";"13.00";"true";"28"
"327";"ПДУ Huayu Samsung RM-L1015 3D LEDTV универсальный пульт / КИТАЙ";"16.40";"true";"28"
"328";"ПДУ Huayu Samsung RM-L1088 универсальный пульт / КИТАЙ";"10.60";"true";"28"
"329";"ПДУ Huayu Sony RM-D996A универсальный пульт / КИТАЙ";"12.60";"true";"28"
"330";"ПДУ Huayu Toshiba RM-L890 универсальный пульт / КИТАЙ";"11.00";"true";"28"
"331";"ПДУ Huayu Триколор GS8306 +TV универсальный / КИТАЙ";"9.40";"true";"28"
"332";"ПДУ Huayu унив. для приставок DVB-Т2+2,версия 2020 г. для разных моделей / КИТАЙ";"11.00";"true";"28"
"333";"ПДУ LG AKB73715601 / КИТАЙ";"9.00";"true";"28"
"334";"ПДУ LG AKB73715601 / КИТАЙ";"10.50";"true";"28"
"335";"ПДУ LG AKB73975757 / КИТАЙ";"10.60";"true";"28"
"336";"ПДУ LG AKB74915330 Smart TV с домиком LCD / КИТАЙ";"10.60";"true";"28"
"337";"ПДУ LG AKB75095308 NETFLIX/AMAZON / КИТАЙ";"9.40";"true";"28"
"338";"ПДУ LG AKB75095312 с кнопкой ivi / КИТАЙ";"10.90";"true";"28"
"339";"ПДУ Samsung AA59-00370B / Республика Беларусь";"10.50";"true";"28"
"340";"ПДУ Samsung AA59-00823A / КИТАЙ";"11.50";"true";"28"
"341";"ПДУ Samsung BN59-00507A / КИТАЙ";"10.40";"true";"28"
"342";"ПДУ Samsung BN59-00609A / КИТАЙ";"11.00";"true";"28"
"343";"ПДУ Samsung BN59-01175N / КИТАЙ";"10.00";"true";"28"
"344";"ПДУ Samsung BN59-01259B SMART TV / КИТАЙ";"28.00";"true";"28"
"345";"ПДУ Vityaz/Shivaki K78 / КИТАЙ";"9.20";"true";"28"
"346";"ПДУ Vityaz/Shivaki STV-22LED5 / КИТАЙ";"9.00";"true";"28"
"347";"ПДУ ZALA / КИТАЙ Белая";"12.00";"true";"28"
"348";"ПДУ ZALA DVB / Эфирная";"12.40";"true";"28"
"349";"ПДУ ZALA интерактивное IP-TV \(BLACK\) / КИТАЙ";"12.20";"true";"28"
"350";"ПДУ Витязь DVBT / КИТАЙ";"9.00";"true";"28"
"351";"ПДУ Витязь RC-5 / КИТАЙ";"7.00";"true";"28"
"352";"ПДУ Витязь RC-6-1\(RC-10\) / КИТАЙ";"7.00";"true";"28"
"353";"ПДУ Горизонт / Horizont RC-E23 / КИТАЙ";"10.00";"true";"28"
"354";"ПДУ Горизонт / Shivaki RC-D3-02 / КИТАЙ";"10.60";"true";"28"
"355";"ПДУ Горизонт RC-6-5 / КИТАЙ";"9.00";"true";"28"
"356";"ПДУ Горизонт RC-6-7 / КИТАЙ";"8.50";"true";"28"
"357";"ПДУ Горизонт RC-6-7-2 / КИТАЙ";"7.00";"true";"28"
"358";"ПДУ Горизонт RC-7-7 / КИТАЙ";"10.10";"true";"28"
"359";"ПДУ Горизонт RC-7-8 / КИТАЙ";"8.90";"true";"28"
"360";"ПДУ Горизонт RC-7-9 / КИТАЙ";"7.50";"true";"28"
"361";"ПДУ Горизонт RC-A3-01 / КИТАЙ";"9.40";"true";"28"
"362";"ПДУ Горизонт RC21b REC / КИТАЙ";"12.50";"true";"28"
"363";"ПДУ Триколор GS8300N / КИТАЙ";"8.00";"true";"28"
"364";"ПДУ Триколор GS8306 / КИТАЙ";"7.40";"true";"28"
"365";"ПДУ Триколор/General GS-B212 \(GS-B211\) / КИТАЙ";"7.40";"true";"28"
"366";"Эфирный ресивер GoldMaster T-707HD / КИТАЙ";"49.00";"true";"28"
"367";"LG universal Magic Motion AM-HR600/650 LCD\(без голосового набора\)";"38.00";"true";"28"
"368";"POLAR/HORIZONT universal RM-L1153+2 \(корпус типа RC-Y53\)";"14.00";"true";"28"
"369";"SAMSUNG AA59-00104A";"8.30";"true";"28"
"370";"SAMSUNG BN59-01014A LCD";"13.00";"true";"28"
"371";"SAMSUNG BN59-01259B SMART TV LCD";"29.00";"true";"28"
"372";"SONY universal RM-996A\(корпус типа RM-ED017\) LCD";"11.00";"true";"28"
"373";"SONY universal RM-L1185\(корпус типа RM-ED054\) LCD";"11.00";"true";"28"
"374";"Арт. 34-0269, ТВ антенна комнатная «Активная» для цифрового телевидения DVB-T2 RX-269 \(с USB\) REXANT";"34.00";"true";"28"
"375";"Арт. 34-0422, ТВ-Антенна наружная АКТИВНАЯ для аналогового и цифрового ТВ - DVB-T2 \(модель RX-422\) \(";"36.00";"true";"28"
"376";"Инжектор питания с USB connector";"14.00";"true";"28"
"377";"Кабель RG 6U";"0.70";"true";"28"
"378";"ПДУ Horizont/Hyundai H-1510 / КИТАЙ";"10.00";"true";"28"
"379";"ПДУ VITYAZ 24L301C28 / КИТАЙ";"11.00";"true";"28"
"380";"ПДУ Витязь K35/К77 / КИТАЙ";"11.50";"true";"28"
"381";"ПДУ Горизонт RC-L-05 / КИТАЙ";"8.00";"true";"28"
"382";"ПДУ Горизонт / Sitronics RC-L-03 / КИТАЙ";"9.50";"true";"28"
"384";"Универсал для спутниковых рессиверов и цифровых приставок RM-SAT1111+D с упр.ТВ \(5000в1\)\(корпус GLOB";"11.00";"true";"28"
"385";"Тройник Toker малый 3ТM белый / Россия";"4.60";"true";"29"
"386";"SQ1818-0007, Розетка 2П+3 открытой установки IP54 16А с прозрачной крышкой белая Селигер TDM";"9.50";"true";"29"
"387";"Арт. 03-0002 , Телефонная розетка - 2 6P-4C REXANT";"3.60";"true";"29"
"388";"Арт. 13919, Volsten Si 1/3С-Bl черный шар \(тройник, разветвитель РВ-043, 16А\)";"3.50";"true";"29"
"389";"Арт. 9377, Volsten Z-1/3A \(тройник, 2шт\)";"6.50";"true";"29"
"390";"Датчик движения ДДС-02-КС , арт. 95123";"31.00";"true";"29"
"391";"Коробка установочная СП 68х40 \(КУ 1203\)";"0.90";"true";"29"
"392";"Переходник вилка-E27 с выключателем \(SBE-A-L-E27\)";"3.50";"true";"29"
"393";"Розетка 4-м Олимп с заземл. белая \(КВАДРАТ\) UNIVersal 1165";"17.20";"true";"29"
"394";"Светорегулятор Минск СП 600W 220В белый EKF Basic , арт. ERD06-101-10";"18.00";"true";"29"
"395";"Четверник Toker 4T4 \(з\) / Россия";"8.30";"true";"29"
"396";"1-203-01 Intro Розетка 2P+E Schuko с крышкой, 16А-250В, IP20, СУ, Plano, белый \(10/100/2000\)/РФ Б002";"5.60";"true";"29"
"397";"E14-E27 ЭРА Переходник E14-E27, белый Б0027975";"2.50";"true";"29"
"398";"SQ0335-0008Патрон Е27 с кольцом, термостойкий пластик, белый, TDM";"1.30";"true";"29"
"399";"SQ0335-0011Патрон карболитовый подвесной, Е27, черный, Б/Н TDM";"1.30";"true";"29"
"400";"SQ0335-0017Патрон GU5,3 для галогенных ламп TDM";"1.00";"true";"29"
"401";"SQ0335-0030Патрон Е27 подвесной, термостойкий пластик, белый, Б/Н TDM";"1.00";"true";"29"
"402";"SQ0335-0053Патрон Е14 подвесной, термостойкий пластик, черный, TDM";"0.80";"true";"29"
"403";"SQ0335-0058Патрон Е14 с кольцом, термостойкий пластик, черный, Б/Н TDM \(ЕС\)";"1.20";"true";"29"
"404";"SQ0717-0002Предохранитель автоматический резьбовой ПАР-16 16А TDM";"7.00";"true";"29"
"405";"SQ0717-0003 Предохранитель автоматический резьбовой ПАР-25 25А TDM 10/100";"12.00";"true";"29"
"406";"SQ1801-0001Выключатель 1-кл. открытой установки IP20 10А, белый Ладога TDM";"3.20";"true";"29"
"407";"SQ1801-0003Выключатель 2-кл. открытой установки IP20 10А, белый Ладога TDM";"3.00";"true";"29"
"408";"SQ1801-0007Выключатель 2-кл. открытой установки с подсветкой IP20 10А, белый Ладога TDM";"3.00";"true";"29"
"409";"SQ1801-0009Выключатель 1-кл. открытой установки с подсветкой IP20 10А, белый Ладога TDM";"3.50";"true";"29"
"410";"SQ1801-0017Розетка двойная 2П открытой установки IP20 10А , белая Ладога TDM";"5.00";"true";"29"
"411";"SQ1801-0019Розетка двойная 2П+3 открытой установки IP20 16А , белая Ладога TDM";"5.30";"true";"29"
"412";"SQ1801-0101Блок комбинированный выкл. 1-кл. 10А + розетка 2П+З 16А 250В БКВР IP20 белый Ладога TDM";"6.90";"true";"29"
"413";"SQ1801-0102 Блок комбинированный выкл. 2-кл. 10А + розетка 2П+З 16А 250В БКВР IP20 белый Ладога TD";"9.50";"true";"29"
"414";"SQ1801-0110 Розетка 2П открытой установки IP20 10A \(керамика\), белая Ладога TDM 10/200";"3.30";"true";"29"
"415";"SQ1801-0112 Розетка двойная 2П открытой установки IP20 10А 250В \(керамика\) белая Ладога TDM 10/10";"4.80";"true";"29"
"416";"SQ1813-0005Блок комбинированный БКВР 2-х кл, выкл + розетка 2П с з/ш TDM";"10.60";"true";"29"
"417";"SQ1813-0006Блок комбинированный БКВР 3-х кл, выкл + розетка 2П с з/ш TDM";"11.50";"true";"29"
"418";"SQ1814-0001Выключатель 1 кл. 10А белый Таймыр TDM";"4.20";"true";"29"
"419";"SQ1814-0002Выключатель 2 кл. 10А белый Таймыр TDM";"4.50";"true";"29"
"420";"SQ1814-0003Выключатель 3 кл. 10А белый Таймыр TDM";"5.00";"true";"29"
"421";"SQ1814-0004 Выключатель 1 кл. с подсветкой 10А белый Таймыр TDM 10/100";"4.60";"true";"29"
"422";"SQ1814-0005 Выключатель 2 кл. с подсветкой 10А белый Таймыр TDM 10/100";"5.00";"true";"29"
"423";"SQ1814-0011Розетка 2П шт.10А 250В белая Таймыр TDM";"4.20";"true";"29"
"424";"SQ1814-0012Розетка 2П+3 16А 250В белая Таймыр TDM";"4.80";"true";"29"
"425";"SQ1814-0013 Розетка двойная 2П 10А 250В белая Таймыр TDM 10/100";"5.80";"true";"29"
"426";"SQ1814-0013Розетка двойная 2П 10А 250В белая Таймыр TDM";"5.60";"true";"29"
"427";"SQ1814-0014Розетка двойная 2П+3 16А 250В белая Таймыр TDM";"6.50";"true";"29"
"428";"SQ1814-0015Розетка 2П с защ. шт.10А 250В белая Таймыр TDM";"4.60";"true";"29"
"429";"SQ1814-0017Розетка двойная 2П с защ. шт. 10А 250В белая Таймыр TDM \(ЕС\)";"5.80";"true";"29"
"430";"SQ1814-0018Розетка двойная 2П+3 с защ. шт.16А 250В белая Таймыр TDM";"6.70";"true";"29"
"431";"SQ1814-0020Розетка телефонная RJ11 белая Таймыр TDM";"4.00";"true";"29"
"432";"SQ1814-0023Розетка телефонная RJ11+ компьютерная RJ45 белая Таймыр TDM";"6.00";"true";"29"
"433";"SQ1814-0026Рамка 2-х постовая горизонтальная белая Таймыр TDM";"2.20";"true";"29"
"434";"SQ1814-0028Рамка 3-х постовая горизонтальная белая Таймыр TDM";"1.70";"true";"29"
"435";"SQ1814-0032Розетка телевизионная типа F \(SAT\) белая Таймыр TDM";"5.50";"true";"29"
"436";"SQ1818-0009, Розетка двойная 2П+3 открытой установки IP54 16А с прозрачной крышкой белая Селигер T";"13.00";"true";"29"
"437";"Арт. А106, Переключатель бра UNIVersal белый 6А 250В \(еврослот\) \(E2103\)";"2.50";"true";"29"
"438";"Вилка каучукрвая IP44 Туринга";"4.50";"true";"29"
"439";"Вилка угловая каучуковая с кольцом 230В 2P+PE 16A IP44 YHT Турига КС , арт. 74813";"5.70";"true";"29"
"440";"Выключатель 2-кл Прага 10А IP44 бел. EKF , арт. EKV10-023-10-44";"7.40";"true";"29"
"441";"Инфракрасный датчик движения Smartbuy, настенный 1200Вт, до 12м, IP44 \(sbl-ms-009\)";"28.00";"true";"29"
"442";"Инфракрасный датчик движения Smartbuy, потолочный 1200Вт, до 6м, IP33 \(sbl-ms-011\)";"23.00";"true";"29"
"443";"Катушка без провода 4 гн. Ф270мм GLANZEN , арт. EL-00-270";"28.00";"true";"29"
"444";"Катушка без провода GLANZEN 4штепс.гнезда с заземлением Ф210мм , арт. EK-00-210";"33.00";"true";"29"
"445";"Катушка без провода с выносным барабаном Ф240мм GLANZEN , арт. EL-01-240";"29.00";"true";"29"
"446";"Колодка Smartbuy бакелитовая, 3 гнезда 10А/2,2кВт без заземления \(SBE-10-3-00-BN\)";"6.50";"true";"29"
"447";"Колодка Smartbuy, 2 гнезда 10А/2,2кВт без заземления \(SBE-10-2-00-N\)/100";"4.80";"true";"29"
"448";"Колодка Smartbuy, 3 гнезда 10А/2,2кВт без заземления \(SBE-10-3-00-N\)/100";"5.30";"true";"29"
"449";"Колодка Smartbuy, 3 гнезда 16А/3,5кВт c выключателем и заземлением \(SBE-16-3-00-ZS\)/100";"10.30";"true";"29"
"450";"Колодка Smartbuy, 3 гнезда 16А/3,5кВт c заземлением \(SBE-16-3-00-Z\)/100";"7.50";"true";"29"
"451";"Колодка Smartbuy, 4 гнезда 10А/2,2кВт без заземления \(SBE-10-4-00-N\)";"6.50";"true";"29"
"452";"Колодка Smartbuy, 4 гнезда 16А/3,5кВт c выключателем и заземлением \(SBE-16-4-00-ZS\); cтрана происхож";"12.50";"true";"29"
"453";"Колодка Smartbuy, 4 гнезда 16А/3,5кВт с заземлением \(SBE-16-4-00-Z\)";"8.60";"true";"29"
"454";"Колодка Smartbuy, 6 гнезд 16А/3,5кВт c выключателем и заземлением \(SBE-16-6-00-ZS\)";"15.80";"true";"29"
"455";"Коробка распаячная для скрытого монтажа в кирпичных стенах 92х92х40мм \(CHINT\) , арт. 8820004";"1.60";"true";"29"
"456";"Коробка распаячная для скрытого монтажа в кирпичных стенах D80х40мм \(с перф. основанием\) CHINT , а";"1.20";"true";"29"
"457";"Переходник E14-E27, белый \(SBE-A-E14-27\)";"2.50";"true";"29"
"458";"Провод ПВС-Т 2х1,0 белый";"1.60";"true";"29"
"459";"Провод ПВС-Т 2х1,5 бел";"2.14";"true";"29"
"460";"Разъем Smartbuy, для плиты 32А 250В 2P+PE \(ОУ\) пластиковый белый \(SBE-IS1-250-P\)/72";"6.80";"true";"29"
"461";"Розетка 2 месная с крышкой IP44";"14.00";"true";"29"
"462";"Розетка Smartbuy, переносная с защитной крышкой каучуковая 230В, 2P+PE, 16A, IP44 \(SBE-16-S07-R\)";"6.00";"true";"29"
"463";"Розетка переносная с защитной крышкой IP44";"6.00";"true";"29"
"464";"Стартер LS111M 4-65Вт 220-240В ИЭК , арт. LLD111-LS-65";"1.50";"true";"29"
"465";"Тройник Toker линейный 3L \[75\]";"6.00";"true";"29"
"466";"Тройник сетевой Викей 250V/16A / Россия";"3.50";"true";"29"
"467";"ЭРА Коробка установочная КУТС 68х45мм для твердых стен саморез., стыковочные узлы синяя IP 20/РФ Б00";"0.50";"true";"29"
"468";"Арт. 14108, Ultraflash LWL-5028-02 \(Светодиодный свет-к,40Вт,4500K,220В, NEW\)";"23.00";"true";"30"
"469";"Б0025684 LLED-03-9W-4000-W ЭРА Линейный светодиодный светильник LED 9Вт 4000К L600мм разъем С7";"15.00";"true";"30"
"470";"Б0046756 Линейные светодиодные светильники LLED-04-9W-6500-W ЭРА Линейный светодиодный светил";"9.50";"true";"30"
"471";"LLED-01-08W-4000-W LLED-01-08W-4000-W ЭРА Линейный светодиодный светильник с выключателем 8Вт 4000";"18.50";"true";"30"
"472";"Арт. 4690612012469, Светильник настольный под лампу СНО-02К на основании 60Вт E27 230В КРАСНЫЙ \(мягк";"22.00";"true";"30"
"473";"Настенный светильник 10 Вт COB, на солнечных батареях, с датчиком движения, черный \(SBF-22-MS\)/100;";"38.00";"true";"30"
"474";"Настенный светильник, на солнечных батареях, с датчиком движения, 20 LED, черный \(SBF-21-MS\)/100; ст";"22.00";"true";"30"
"475";"Настенный светильник, на солнечных батареях, с датчиком движения, 24 LED, черный \(SBF-63-MS\)/100; cт";"36.00";"true";"30"
"476";"Настенный светильник, на солнечных батареях, с датчиком движения, COB, 5 Вт, черный \(SBF-32-MS\)/100";"25.00";"true";"30"
"477";"Светильник LED Ultraflash LWL-5029-01 \(20Вт, 6500К, 220В, NEW\) 14109";"16.00";"true";"30"
"478";"Светильник LED Ultraflash LWL-5029-02 \(40Вт, 6500К, 220В, NEW\) 14110";"23.00";"true";"30"
"479";"Светильник Альфа-лед линейный 1200мм, 36W 220V 4000K 3000lm";"20.00";"true";"30"
"480";"Светильник линейный AL 1200мм, 36W 6500K IP65";"32.00";"true";"30"
"481";"Светильник светодиодный ДАУНЛАЙТ CBO-LED-138-12W-4000K-KC , арт. 9530005";"23.00";"true";"30"
"482";"Светильник светодиодный линейный GLANZEN 60Вт-6500К-3300Лм , арт. RPD-0003-60";"38.00";"true";"30"
"483";"Светодиодный \(LED\) светильник LU2 Smartbuy 18W 6400К матовый \(SBL-LU2-18W\)";"15.20";"true";"30"
"484";"Светодиодный \(LED\) светильник LU3 Smartbuy 50W 6400К матовый \(SBL-LU3-50W\)";"35.00";"true";"30"
"485";"Светодиодный \(LED\) светильник T5 Smartbuy 10W матовый L900 mm \(SBL-T5-10W-5K\)";"20.00";"true";"30"
"486";"Светодиодный \(LED\) светильник T5 Smartbuy 18W матовый L1162mm \(SBL-T5-18W-5K\)/30";"22.00";"true";"30"
"487";"Светодиодный \(LED\) светильник T5 Smartbuy 5W матовый L300 mm \(SBL-T5-5W-5K\)";"13.00";"true";"30"
"488";"Светодиодный \(LED\) светильник ФИТО Smartbuy 18W \(SBL-Fito-18\_W\)/25";"45.00";"true";"30"
"489";"Прожектор LED 100W 6500К 8000Лм \(GLANZEN\) , арт. FAD-0028-100";"56.00";"true";"31"
"490";"Прожектор LED 50W-SL 6500К 4000Лм с датчиком движения \(GLANZEN\) , арт. FAD-0013-50-SL";"55.00";"true";"31"
"491";"Прожектор LED TV-606-100W-6500K-IP65-КС , арт. LED TV-606-6500";"65.00";"true";"31"
"492";"Арт. 605-003, Прожектор светодиодный 30 Вт 200–260В IP65 2400 лм 6500 K холодный свет REXANT";"18.00";"true";"31"
"493";"Прожектор CP-PL03-0030 30W 6000K";"29.00";"true";"31"
"494";"Прожектор LED 30W-SL 6500К 2400Лм сдатчиком движения \(GLANZEN\) , арт. FAD0012-30-SL";"44.00";"true";"31"
"495";"Прожектор LED TV-601-10W-6500K-IP65-КС , арт. LED TV-601-6500";"14.00";"true";"31"
"496";"Прожектор LED TV-602-20W-6500K-IP65-КС, арт. LED TV-602-6500";"20.00";"true";"31"
"497";"Прожектор LED TV-604-50W-6500K-IP65-КС , арт. LED TV-604-6500";"27.00";"true";"31"
"498";"Светодиодный \(LED\) прожектор FL SMD LIGHT Smartbuy-30W/6500K/IP65 \(SBL-FLLight-30-65K\)/50";"22.00";"true";"31"
"499";"Арт. 4690612002149, Лампа светодиодная LED-ШАР-standard 5Вт 230В Е14 4000К 450Лм ASD";"3.10";"true";"32"
"500";"Арт. 4690612002187, Лампа светодиодная LED-ШАР-standard 5Вт 230В Е27 4000К 450Лм ASD";"3.20";"true";"32"
"501";"Арт. 4690612002323, Лампа светодиодная LED-JCDRC-standard 7.5Вт 230В GU10 4000К 675Лм ASD";"4.00";"true";"32"
"502";"Арт. 4690612003955, Лампа светодиодная LED-СВЕЧА-standard 7.5Вт 230В Е27 4000К 675Лм ASD";"3.50";"true";"32"
"503";"Арт. 4690612015576, Лампа светодиодная LED-СВЕЧА-standard 10Вт 230В Е14 4000К 900Лм ASD";"4.50";"true";"32"
"504";"LED JC-1,5W-12V-840-G4 LED JC-1,5W-12V-840-G4 ЭРА \(диод, капсула, 1,5Вт, нейтр, G4\) Б0033190";"5.90";"true";"32"
"505";"LED JC-2,5W-12V-840-G4 LED JC-2,5W-12V-840-G4 ЭРА \(диод, капсула, 2,5Вт, нейтр, G4\) Б0033192";"6.50";"true";"32"
"506";"Арт. 4690612026688, Лампа светодиодная LED-JCD-standard 9Вт 230В G9 6500К 810Лм ASD";"8.20";"true";"32"
"507";"Арт. 604-032, Лампа светодиодная Шарик \(GL\) 7,5 Вт E14 713 лм 4000 K нейтральный свет REXANT";"3.60";"true";"32"
"508";"Лампа светодиодная \(аварийная\) А70-9W-4000K-E27-КС , арт. 950403";"19.00";"true";"32"
"509";"Лампа светодиодная \(трансформер\) JDR-HP-STD\(T\)-30W-4000K-E27-КС , арт. 9500738";"48.00";"true";"32"
"510";"Лампа светодиодная \(трансформер\) JDR-HP-STD\(T\)-50W-6000K-E27/E40-КС , арт. 9500735";"55.00";"true";"32"
"511";"Лампа светодиодная T5-6W-G5-4000К-КС \(300мм\) , арт. 949001";"11.00";"true";"32"
"512";"Лампа светодиодная T5-9W-G5-4000К-КС \(600мм\) , арт. 949002";"13.00";"true";"32"
"513";"Лампа светодиодная T8-18W-G13-6500К-КС \(1200мм\) , арт. 950070";"6.50";"true";"32"
"514";"Светодиодная \(LED\) Tablet GX53 Smartbuy-8W/4000K/Мат рассеиватель \(SBL-GX-8W-4K\)";"5.20";"true";"32"
"515";"Светодиодная \(LED\) Лампа FIL Smartbuy-A60-11W/4000/E27 \(SBL-A60F-11-40K-E27\)";"7.50";"true";"32"
"516";"Светодиодная \(LED\) Лампа Smartbuy-A60-05W/4000/E27";"3.00";"true";"32"
"517";"Светодиодная \(LED\) Лампа Smartbuy-A60-09W/3000/E27; страна происхождения -Китай";"3.60";"true";"32"
"518";"Светодиодная \(LED\) Лампа Smartbuy-A60-09W/4000/E27";"3.60";"true";"32"
"519";"Светодиодная \(LED\) Лампа Smartbuy-A60-11W/4000/E27";"3.60";"true";"32"
"520";"Светодиодная \(LED\) Лампа Smartbuy-A60-11W/6000 \(SBL-A60-11-60K-E27\)";"3.60";"true";"32"
"521";"Светодиодная \(LED\) Лампа Smartbuy-A60-15W/4000/E27";"2.20";"true";"32"
"522";"Светодиодная \(LED\) Лампа Smartbuy-A60-15W/6000/E27 \(SBL-A60-15-60K-E27\); cтрана происхождения - Кита";"5.20";"true";"32"
"523";"Светодиодная \(LED\) Лампа Smartbuy-A65-20W/4000/E27 \(SBL-A65-20-40K-E27\); страна происхождения -Китай";"6.80";"true";"32"
"524";"Светодиодная \(LED\) Лампа Smartbuy-A65-25W/4000/E27 \(SBL-A65-25-40K-E27\)";"8.80";"true";"32"
"525";"Светодиодная \(LED\) Лампа Smartbuy-C37-05W/3000/E14";"3.00";"true";"32"
"526";"Светодиодная \(LED\) Лампа Smartbuy-C37-05W/3000/E27 \(SBL-C37-05-30K-E27\)";"3.00";"true";"32"
"527";"Светодиодная \(LED\) Лампа Smartbuy-C37-05W/4000/E14";"3.20";"true";"32"
"528";"Светодиодная \(LED\) Лампа Smartbuy-C37-05W/4000/E27 \(SBL-C37-05-40K-E27\)";"3.20";"true";"32"
"529";"Светодиодная \(LED\) Лампа Smartbuy-C37-07W/3000/E27 \(SBL-C37-07-30K-E27\); страна происхождения -Китай";"3.50";"true";"32"
"530";"Светодиодная \(LED\) Лампа Smartbuy-C37-07W/4000/E14";"2.00";"true";"32"
"531";"Светодиодная \(LED\) Лампа Smartbuy-C37-07W/4000/E27 \(SBL-C37-07-40K-E27\)";"3.50";"true";"32"
"532";"Светодиодная \(LED\) Лампа Smartbuy-C37-9,5W/4000 \(SBL-C37-9\_5-40K-E14\)";"4.50";"true";"32"
"533";"Светодиодная \(LED\) Лампа Smartbuy-C37-9,5W/4000 \(SBL-C37-9\_5-40K-E27\)";"4.70";"true";"32"
"534";"Светодиодная \(LED\) Лампа Smartbuy-C37-9,5W/6000 \(SBL-C37-9\_5-60K-E14\)";"4.50";"true";"32"
"535";"Светодиодная \(LED\) Лампа Smartbuy-C37-9,5W/6000 \(SBL-C37-9\_5-60K-E27\)";"4.50";"true";"32"
"536";"Светодиодная \(LED\) Лампа Smartbuy-G4-3\_5W/4000/G4 \(SBL-G4 3\_5-40K\)";"4.80";"true";"32"
"537";"Светодиодная \(LED\) Лампа Smartbuy-G4-4,5W/4000/G5 \(SBL-G4 4\_5-40K\)";"7.50";"true";"32"
"538";"Светодиодная \(LED\) Лампа Smartbuy-G45-05W/4000/E27 \(SBL-G45-05-40K-E27\)";"3.30";"true";"32"
"539";"Светодиодная \(LED\) Лампа Smartbuy-G45-07W/3000/E27 \(SBL-G45-07-30K-E27\)";"3.60";"true";"32"
"540";"Светодиодная \(LED\) Лампа Smartbuy-G45-07W/4000/E27\(SBL-G45-07-40K-E27\)";"3.50";"true";"32"
"541";"Светодиодная \(LED\) Лампа Smartbuy-G45-9,5W/4000/E27 \(SBL-G45-9\_5-40K-E27\)";"4.50";"true";"32"
"542";"Светодиодная \(LED\) Лампа Smartbuy-G9-4W/4000/G9 \(SBL-G9 04-40K\)";"6.00";"true";"32"
"543";"Светодиодная \(LED\) Лампа Smartbuy-Gu10-07W/4000; cтрана происхождения - Китай";"4.20";"true";"32"
"544";"Светодиодная \(LED\) Лампа Smartbuy-Gu5,3-05W/4000";"3.60";"true";"32"
"545";"Светодиодная \(LED\) Лампа Smartbuy-Gu5,3-07W/4000";"3.80";"true";"32"
"546";"Светодиодная \(LED\) Лампа Smartbuy-Gu5,3-9,5W/3000 \(SBL-GU5\_3-9\_5-30K\)";"4.50";"true";"32"
"547";"Светодиодная \(LED\) Лампа Smartbuy-Gu5,3-9,5W/4000 \(SBL-GU5\_3-9\_5-40K\)";"4.80";"true";"32"
"548";"Светодиодная \(LED\) Лампа Smartbuy-Gu5,3/ 12V-07W/4000 \(SBL-GU5\_3-07-40K-12V\); страна происхождения -";"8.20";"true";"32"
"549";"Светодиодная \(LED\) Лампа Smartbuy-R39-04W/6000/E14 \(SBL-R39-04-60K-E14\); cтрана происхождения - Кита";"4.50";"true";"32"
"550";"Светодиодная \(LED\) Лампа Smartbuy-R50-06W/3000/E14";"4.60";"true";"32"
"551";"Светодиодная \(LED\) Лампа Smartbuy-TUBE T8/G13-10W/4100";"5.80";"true";"32"
"552";"Светодиодная \(LED\) Лампа Smartbuy-С37-7,5W/3000/E14, 550Lm \(SBL-C37-7,5-30K-E14\); страна происхожден";"3.50";"true";"32"
"553";"Светодиодная \(LED\) Лампа ФИТО Smartbuy-A60-11W/E27 \(SBL-A60-11-fito-E27\)";"19.00";"true";"32"
"554";"1.Лампа автомобильная светодиодная цоколь Т5 COB 12В. Штрих-код 6914091995005";"1.00";"true";"33"
"555";"10. Лампа автомобильная светодиодная цоколь BA9S 3D COB светодиоды 12В.Штрих-код 6914091995098";"2.80";"true";"33"
"556";"11. Лампа автомобильная светодиодная цоколь BA9S 8SMD 3014 светодиоды 12В. Штрих-код 6914091995104";"2.70";"true";"33"
"557";"12. Лампа автомобильная светодиодная цоколь C5W FEST COB 12 SMD светодиоды 12В база 36 мм . Штрих-к";"2.80";"true";"33"
"558";"13. Лампа автомобильная светодиодная цоколь C5W FEST COB 12 SMD светодиоды 12В база 39 мм . Штрих-";"2.80";"true";"33"
"559";"14. Лампа автомобильная светодиодная цоколь C5W FEST COB 12 SMD светодиоды 12В база 41 мм . Штрих-к";"2.80";"true";"33"
"560";"15. Автолампы светодиодные T10\(W5W\) 12V 5 SMD 5050 блистер EXTRA LIGHT т.м. SKYWAY - 2 шт. Марки";"5.00";"true";"33"
"561";"16. Автолампы светодиодные T10\(W5W\) 12V 10 SMD 3528 блистер EXTRA LIGHT т.м. SKYWAY - 2 шт. Марк";"6.00";"true";"33"
"562";"17.Лампа автомобильная светодиодная цоколь C5W FEST 16\*SMD 2835 светодиоды 12В база 31 мм. Штрих-";"2.80";"true";"33"
"563";"18. Лампа автомобильная светодиодная цоколь C5W FEST 16\*SMD 2835 светодиоды 12В база 36 мм. Штрих";"2.80";"true";"33"
"564";"19. Лампа автомобильная светодиодная цоколь C5W FEST 16\*SMD 2835 светодиоды 12В база 39 мм. Штрих";"2.80";"true";"33"
"565";"2.Лампа автомобильная светодиодная цоколь W5W \(T10\) 12В СОВ-светодиод. Штрих-код 6919750805015 .";"1.80";"true";"33"
"566";"3. Лампа автомобильная светодиодная цоколь W5W \(T10\) 3D COB светодиоды 12В. Штрих-код 691409199501";"2.80";"true";"33"
"567";"4.Лампа автомобильная светодиодная цоколь W5W \(T10\) 12В СОВ-светодиод. Штрих-код 6919750805992";"3.30";"true";"33"
"568";"5. Лампа автомобильная светодиодная W5W \(T10\) 9 SMD-светодиодов модель 5050 12В. Штрих-код 4627085";"3.30";"true";"33"
"569";"6. Лампа автомобильная светодиодная цоколь W5W \(T10\) 12В 13SMD-светодиодов модель 5050.Штрих-код 6";"3.80";"true";"33"
"570";"7. Лампа автомобильная светодиодная цоколь W5W \(T10\) CANBUS COBL - светодиоды 12В. Штрих-код 6919";"3.80";"true";"33"
"571";"8. Лампа автомобильная светодиодная цоколь 1156 BA15S на СОВ-светодиодах 12В .Штрих-код 6919750805";"3.00";"true";"33"
"572";"9. Лампа автомобильная свеетодиодная цоколь 1157 BAY15D на СОВ-светодиодах 12В.Штрих-код 691409199";"3.00";"true";"33"
"573";"W5W ЭРА Автолампа W5W 12V W2,1x9.5d \(лампа габаритных огней, повт. поворота, подсветка номерного з";"1.00";"true";"33"
"574";"Т4W ЭРА Автолампа Т4W 12V BA9s \(лампа габаритных и стояночных огней, подсветка номерного знака\) Б";"1.00";"true";"33"
"575";"MIC Camelion 25/P/CL/E14 \(Эл. лампа накаливания для холодильников и декор.подсветки\)";"1.80";"true";"34"
"576";"MIC Camelion 40-T25-CL-E14 \(Эл.лампа накал.для вытяжек\)";"3.00";"true";"34"
"577";"Арт. 12979 , MIC Camelion 15-PT-CL-E14 \(Эл.лампа накал.для духовок\)";"3.80";"true";"34"
"578";"430245Лампа люминесцентная R+C D12-1U PL-11W-G23-6700";"6.00";"true";"34"
"579";"Арт Лампа МО 12 В 40 Вт E27 TDM /100";"1.80";"true";"34"
"580";"Арт. 10406 , Camelion JD 35W G4 \(Эл.лампа галоген.без рефлектора, 220V, 2000 часо";"2.40";"true";"34"
"581";"Арт. 1955 , Camelion JC 20W g4 12V \(Эл.лампа галоген. без рефлектора\)\(489511782";"2.20";"true";"34"
"582";"Арт. 1957 , Camelion JC 50W g6,35 12V \(Эл.лампа галоген.без рефлектора\)\(4895117";"2.00";"true";"34"
"583";"Арт. 2169 , Camelion JC 35W g4 12V \(Эл.лампа галоген.без рефлектора\)\(4895117820";"2.00";"true";"34"
"584";"Арт. 2934 , Camelion J118 150W R7s \(Линейная галоген. лампа, L=118mm, 220V, 200";"3.60";"true";"34"
"585";"Арт. 5553 , Camelion G9 40W CL \(Эл.лампа галоген.без рефлектора, прозрачная, 22";"3.90";"true";"34"
"586";"Арт. 926000003017 , 871150001167150 Лампа накаливания Philips Stan 60W E14 230V B35 CL 1";"1.70";"true";"34"
"587";"излучатель тепловой 250Вт";"8.50";"true";"34"
"588";"Лампа люминесцентная T5/840-13W-КС ,арт. 950207";"7.80";"true";"34"
"589";"Лампа люминесцентная T5/840-14W-КС ,арт. 950201";"8.40";"true";"34"
"590";"Лампа люминесцентная T5/840-21W-KC , арт. 950215";"10.00";"true";"34"
"591";"Лампа люминесцентная КЛЛ-PS-7Вт-4000К-2G7-КС , арт. 95213";"6.90";"true";"34"
"592";"Лампа люминесцентная КЛЛ-PS-9Вт-4000К-2G7-КС , арт. 95396";"7.90";"true";"34"
"593";"Лампа накаливания Б 230-75, 75 Вт, Е27";"1.00";"true";"34"
"594";"Лампа накаливания ДШ 60Вт E14 Лисма";"1.20";"true";"34"
"595";"Лампа накаливания95Вт Т230-100-2 \(100\)";"1.20";"true";"34"
"596";"Лампы/Накаливания/40 Б 230-40- Е27";"1.00";"true";"34"
"597";"Лампы/Накаливания/60 Б230-60-4";"1.00";"true";"34"
"598";"ЭРА Автолампа P21/5W BAY15d \(лампа для указ. поворота и стоп-сигн\) /10/100";"1.00";"true";"34"
"599";"ЭРА Автолампа P21W 12V BA15S \(лампа для указ. поворота и стоп-сигн\) 10/100";"1.00";"true";"34"
"600";"Тостер Centek СТ-1421 \(черный\)";"65.00";"true";"35"
"601";"-2-1,5m Удлин-ль Россия ЭРА без зазeмл., 2х1мм2, 10А, ПВС, 2гн, 1,5м/РФ Б0028359 Б0028359";"10.20";"true";"36"
"602";"U-2-3m-2x1 Удлинитель электрический ЭРА U-2-3m-2x1 без заземления 2 розетки 3м ПВС 2x1мм2 10А Б002";"14.80";"true";"36"
"603";"U-2-5m-2x1 Удлинитель электрический ЭРА U-2-5m-2x1 без заземления 2 розетки 5м ПВС 2x1мм2 10А Б002";"19.30";"true";"36"
"604";"U-2s-3m-2x1 U-2s-3m-2x1 ЭРА Удлин-ль ЭРА без заземл, с выкл, 2гн, 3м, ПВС, 2х1мм2, 10А Б0044047";"16.00";"true";"36"
"605";"U-2s-5m-2x1 U-2s-5m-2x1 ЭРА Удлин-ль ЭРА без заземл, с выкл, 2гн, 5м, ПВС, 2х1мм2, 10А Б0044048";"20.80";"true";"36"
"606";"U-3-1,5m Удлин-ль ЭРА без зазeмл., 2х1мм2, 10А, ПВС, 3гн, 1,5м/РФ Б0028354 Б0028354";"10.80";"true";"36"
"607";"U-3-10m Удлин-ль Россия ЭРА без зазeмл., 2х1мм2, 10А, ПВС, 3гн, 10м \(12/360\)/РФ Б0028358 Б0028358";"34.00";"true";"36"
"608";"U-3-5m Удлин-ль Россия ЭРА без зазeмл., 2х1мм2, 10А, ПВС, 3гн, 5м /РФ Б0028356 Б0028356";"19.50";"true";"36"
"609";"U-3-7m Удлин-ль ЭРА без зазeмл., 2х1мм2, 10А, ПВС, 3гн, 7м \(20/600\)/РФ Б0028357 Б0028357";"25.50";"true";"36"
"610";"U-3e-1,5m-3x1 U-3e-1,5m ЭРА Удлин-ль c заземл., 3гн, 1,5м, ПВС, 3х1мм2, 16А Б0028369";"12.50";"true";"36"
"611";"U-3es-3m-3x1 U-3es-3m ЭРА Удлин-ль с заземл,с выкл, 3гн, 3м, ПВС, 3x1мм2, 16A Б0028378";"20.50";"true";"36"
"612";"U-4-3m-2x1 Удлинитель электрический ЭРА U-4-3m-2x1 без заземления 4 розетки 3м ПВС 2x1мм2 10А Б002";"16.80";"true";"36"
"613";"U-4-5m-2x1 Удлинитель электрический ЭРА U-4-5m-2x1 без заземления 4 розетки 5м ПВС 2x1мм2 10А Б002";"20.80";"true";"36"
"614";"U-4e-3m Удлин-ль Россия ЭРА c заземл., 3х1мм2, 16А, ПВС, 4гн, 3м/РФ Б0028374 Б0028374";"17.00";"true";"36"
"615";"U-4e-5m-3x1 Удлинитель электрический ЭРА U-4e-5m-3x1 с заземлением 4 розетки 5м ПВС 3x1мм2 16А Б00";"27.00";"true";"36"
"616";"U-4s-3m-2x1 Удлинитель электрический ЭРА U-4s-3m-2x1 без заземления c выключателем 4 розетки 3м ПВ";"17.30";"true";"36"
"617";"U-5-3m Удлин-ль ЭРА без зазeмл., 2х1мм2, 10А, ПВС, 5гн, 3м \(20/600\)/РФ Б0028364 Б0028364";"17.60";"true";"36"
"618";"U-5-5m-2x1 U-5-5m ЭРА Удлин-ль без зазeмл., 5гн, 5м, ПВС, 2х1мм2, 10А Б0028365";"22.00";"true";"36"
"619";"U-5s-3m-2x1 Удлинитель электрический ЭРА U-5s-3m-2x1 без заземления c выключателем 5 розеток 3м ПВ";"22.20";"true";"36"
"620";"U-5s-5m-2x1 Удлинитель электрический ЭРА U-5s-5m-2x1 без заземления c выключателем 5 розеток 5м ПВ";"27.30";"true";"36"
"621";"Сетевой фильтр Smartbuy, 10А, 2 200 Вт, 5 розеток, длина 5,0 м, черный \(SBSP-50-K\)/35";"22.00";"true";"36"
"622";"Сетевой фильтр USF-M-4es-1.5m-W \(белый\) с заземл, 3x0,75мм2, с выкл, 4гн, 1.5м /20";"21.00";"true";"36"
"623";"Удлинитель на рамке GLANZEN штепс. гн.ПВС 2х0,75 \(30 м\) , арт. ER-30-001";"44.00";"true";"36"
"624";"Удлинитель ЭРА Россия U-3-3m без зазeмл., 3гн, 3м, ПВС, 2х1мм2, 10А /20";"15.80";"true";"36"
"625";"Утюг Centek CT-2348 VIOLET";"58.00";"true";"37"
"626";"Утюг Centek CT-2349 RED";"68.00";"true";"37"
"627";"Утюг Centek CT-2360 BLUE";"48.00";"true";"37"
"628";"Фен \(средний\) ECON ECO-BH162D";"44.00";"true";"38"
"629";"Фен Centek CT-2226 Professional \(черн/оранж\)";"74.00";"true";"38"
"630";"Фен Scarlett SC - HD70I74 графит";"59.00";"true";"38"
"631";"Фен Scarlett SC-HD70I26 Mokko";"59.00";"true";"38"
"632";"Плойка с дисплеем Babyliss Pro perfect curl";"79.00";"true";"38"
"633";"Фен Centek CT-2227 Professional";"68.00";"true";"38"
"634";"Фен Centek CT-2229 \(бел/роз\)";"44.00";"true";"38"
"635";"Фен Centek CT-2231 \(бел/черн\)";"38.00";"true";"38"
"636";"Фен NORMANN AHD-427";"59.00";"true";"38"
"637";"Щипцы для завивки Centek CT-2082";"37.00";"true";"38"
"638";"USB накопитель Smartbuy 16GB V-Cut Blue \(SB16GBVC-B\)";"17.00";"true";"39"
"639";"Карта памяти QUMO MicroSDHC 16GB Сlass 10 без адаптера \(QM16GMICSDHC10NA\)";"19.00";"true";"39"
"640";"Накопитель QUMO 16GB USB 2.0 Optiva 01 Green, цвет корпуса зеленый \(QM16GUD-OP1-green\)";"19.00";"true";"39"
"641";"Накопитель QUMO 32GB USB 2.0 Click Crimson, цвет корпуса алый \(QM32GUD-CLK-Crimson\)";"23.00";"true";"39"
"642";"Накопитель QUMO 8GB Cosmos цвет корпуса Silver 2.0 \(QM8GUD-Cos\)";"18.00";"true";"39"
"643";"\* USB флэш-диск Smart Buy 4GB Glossy series Black";"14.50";"true";"39"
"644";"\* USB флэш-диск Smart Buy 4GB Glossy series Black";"24.00";"true";"39"
"645";"CD-R Mirex STANDARD 700 Мб 48x в бумажном конверте с окном \(отгрузка кратно 10\) \(UL120051A8Q\)";"1.20";"true";"39"
"646";"DVD-R Mirex printable inkjet 4,7 Гб 16x Cake box 10 \(UL130028A1L\) \(отгрузка кратно 10 шт\)";"1.20";"true";"39"
"647";"micro SDHC карта памяти Smartbuy 32GB Class 10 UHS-I \(без адаптера\)";"17.00";"true";"39"
"648";"Perfeo USB флэш-диск 4GB E01 Black economy series /10";"15.00";"true";"39"
"649";"USB накопитель Smartbuy 32GB Glossy series Black \(SB32GBGS-K\)";"19.00";"true";"39"
"650";"USB/microUSB флэш-накопитель с двойным разъёмом Mirex SMART SILVER 8GB \(13600-DСFSSM08\)";"17.00";"true";"39"
"651";"Карта памяти microSDHC с адаптером MIREX 4GB class 10 \(13613-AD10SD04\)";"16.00";"true";"39"
"652";"Карта памяти QUMO MicroSDHC 32GB, 3.0 без адаптером SD \(QM32GMICSDHC10U1NA\)";"22.00";"true";"39"
"653";"SQ0350-0094, Фонарь Тактика 2 , 1 Вт 1 светодиод, алюм., фокус.,70 лм, бат. 3\*AАА, TDM";"9.00";"true";"40"
"654";"Арт. 14207, UF НРБ 01-60-002 \(лампа переноска 10 м. 60Вт, УХЛ2 «Фокус 2210»\)";"27.00";"true";"40"
"655";"Cветодиодный Велосипедный \(уневерсальное крепление\) YYC-CD-B26";"18.00";"true";"40"
"656";"SB-801 SB-801 Фонарь ЭРА пушлайт Сфера-1 \[5Вт. COB, 3xAAA, магнит, бл.\] Б0036607";"12.90";"true";"40"
"657";"Арт, 11788 , Ultraflash 7102-ТН \(фонарь, черный, 1LED, 1 реж, 2XR03, пласт, блис";"4.00";"true";"40"
"658";"Арт. 10482 , Ultraflash LED652 \(фонарь велосипедный., пластик,черный 9 LED, 3xR03";"13.00";"true";"40"
"659";"Арт. 4690612031897, Фонарь налобный аккумуляторный HLA 08B LED 150Lm 9ч 2 режима, з/у 230В ЧЕРНЫЙ I";"26.00";"true";"40"
"660";"Арт. Б0027819 , Фонарь GB-701 ЭРА Налобный серия Практик \(5Вт COB, 3xAAA, сенсор, б";"23.00";"true";"40"
"661";"Кемпинговый фонарь складной 3x3Вт COB, черный \(SBF-30-F\)/48";"15.00";"true";"40"
"662";"Светодиодный беспроводной USB с датчиком движения и освещенности GLANZEN , арт. RPD-0001-night";"23.00";"true";"40"
"663";"Светодиодный фонарь на велосипед FF-303; страна ввоза-РОССИЯ";"19.00";"true";"40"
"664";"Фонарь Camelion LED5357 \(фонарь налобн, COB LED красн., 1Вт, 3 реж, 3XAAA, пласт, блист\) 10 /100, 48";"7.00";"true";"40"
"665";"Фонарь Ultraflash LED16001 \(фонарь 3XR03, черный, COB LED 3Вт, пластик, блистер\) 6/96 13357";"12.00";"true";"40"
"666";"Фонарь ЭРА SB-606 пушлайт кликер \[COB, 3xAAA, скотч, бл\] 1/60";"16.00";"true";"40"
"667";"Cветодиодный Велосипедный аккумуляторный фонарь \(уневерсальное крепление\) YYC-CD-7588";"24.00";"true";"41"
"668";"Cветодиодный НАЛОБНЫЙ 1 LED аккумулятор зарядка MIKRO USB GL-101";"16.00";"true";"41"
"669";"Cветодиодный НАЛОБНЫЙ 3 LED \(диод\) ZOOM зарядка MIKRO USB BL-C936";"15.00";"true";"41"
"670";"Cветодиодный НАЛОБНЫЙ 3 LED \(диод\) ZOOM+1 аккумулятор 18650+зарядка MIKRO USB KX-1805";"19.00";"true";"41"
"671";"Cветодиодный НАЛОБНЫЙ 3 LED \(диод\) ZOOM+2 аккумулятора 18650+зарядка MIKRO USB BL-XQ-167";"39.00";"true";"41"
"672";"TA4-box8 Фонарь Трофи Акку 4V0.5Ah, 4xLED, промо-бокс \(8/80/1920\)/РФ Б0004985 Б0004985";"13.00";"true";"41"
"673";"Аккумуляторный фонарь-прожектор 2 в 1 2W+18 LED, черный \(SBF-100-K\)/36";"32.00";"true";"41"
"674";"Фонарь аккумуляторный 1LED zoom POLICE 258000W USB Charge BL-525";"15.00";"true";"41"
"675";"Фонарь аккумуляторный Cветодиодный P50 1LED ZOOM 5 режимов работы +1 аккум 18650 YYC-P03-P50";"44.00";"true";"41"
"676";"Арт. 12-2031 , Тестер-пробник Proconnect P-01 140 мм";"1.70";"true";"42"
"677";"Арт. 79-0103 , Тросовый замок 100см зеленый Четыре Сезона";"13.00";"true";"42"
"678";"Арт. 79-0266, Тросовый кодовый замок взломостойкий для велосипедов и колясок 65 см черный";"28.00";"true";"42"
"679";"Арт. R003541, Таймер Apple";"9.00";"true";"42"
"680";"Арт. R357114 , Пистолет клеевой Engy EGG-10, с подставкой, 10 Вт";"9.50";"true";"42"
"681";"Арт. R357116, Пистолет клеевой Engy EGG-40, с подставкой, 40 Вт";"12.00";"true";"42"
"682";"Будильник 1019 электронный";"29.00";"true";"42"
"683";"Звонок электрический REXANT 220 вольт с регулятором громкости";"28.00";"true";"42"
"684";"Проводной телефон BBK BKT-105 RU черный";"28.00";"true";"42"
"685";"Р/Телефон Dect Gigaset A116 черный";"86.00";"true";"42"
"686";"Шнур с вилкой для утюга \(з\) \( провод ШРО 3\*0,75\) 1,7 м / Россия";"10.80";"true";"42"
"687";"D65 Звонок ЭРА D65 \(нов.упак\)/РФ Б0019000 Б0019000";"28.00";"true";"42"
"688";"SQ1024-0304Клеевой пистолет КП-40-1, 7 мм, подставка, выключатель, шнур 1,3 м, 40 Вт, Т=220 С Грани";"27.00";"true";"42"
"689";"SQ1508-0103Комплект для беспроводного управления освещением ПУ1-МK-3 \(3 канала\) Уютный дом TDM";"31.00";"true";"42"
"690";"SQ1901-0107 Кнопка народная КП-Н-01 \(для пров. звонков, полиэт.пак.\) TDM 1/200";"2.60";"true";"42"
"691";"Арт. 61-0968, Бытовая газовая пьезозажигалка с классическим пламенем многоразовая \(1 шт.\) красная С";"7.50";"true";"42"
"692";"Звонок дверной беспроводной \(SBE-11-1-32\)";"19.00";"true";"42"
"693";"Звонок дверной беспроводной 220 В кнопка IP44 RX-6 REXANT";"32.00";"true";"42"
"694";"Извещатель пожарный дымовой автономный ИП 212-03-02М1 \(с батарейками\)";"22.00";"true";"42"
"695";"Клей Момент Супер 3Г на листе \(BL12\)";"3.80";"true";"42"
"696";"Мультиметр DT9201A, противоуд., многофункц., в компл: щупы, крона, Smartbuy tools \(SBT-DT9201A\)/40";"20.00";"true";"42"
"697";"Мультиметр тестер вольтметр амперметр DT-832,";"16.00";"true";"42"
"698";"Мультиметр цифровой WORTEX AM 6009";"16.00";"true";"42"
"699";"Пистолет клеевой PATRIOT GG 101";"36.00";"true";"42"
"700";"СИЛА SEBL1-6 Клей ЭПОКСИДНЫЙ 6 мл. шприц BL-1 \(цена за 1шт\) \(12/288\)";"6.30";"true";"42"
"701";"СИЛА SGBL1-3 Супер-клей ГЕЛЬ 3 гр. BL-1 12/288/6912";"2.80";"true";"42"
"702";"Суперклей универсальный STARFIX, \(12шт, х 3гр,\)";"0.90";"true";"42"
"703";"Сушилка для обуви металлическая LEBEN 220В, 12Вт \[78\]";"15.00";"true";"42"
"704";"Арт. R005229, Термос из нерж стали, серия NUOVO, 0,5 л, тм Mallony";"29.00";"true";"43"
"705";"Арт. R005230, Термос из нерж стали, серия NUOVO, 0,75 л, тм Mallony";"35.00";"true";"43"
"706";"Арт. R005342, Термосумка складная с алюминиевым каркасом CB-7046-1 с серым принтом, 48\*27\*24см";"34.00";"true";"43"
"707";"Автомобильная термокружка Centek CT-0090";"20.00";"true";"43"
"708";"Кипятильник электрический 0,5 кВт \(г. Великие Луки\) \[50\]";"9.50";"true";"43"
"709";"Термокружка LARA LR04-23 Aqua 450мл";"35.00";"true";"43"
"710";"Термокружка с ремешком, 380 мл, нержавеющая сталь, black, PERFECTO LINEA";"33.00";"true";"43"
"711";"Термокружка с ремешком, 380 мл, нержавеющая сталь, red, PERFECTO LINEA";"33.00";"true";"43"
"712";"Термос LARA LR04-10 \(сталь\) - 750 мл";"29.00";"true";"43"
"713";"Термос LARA LR04-13 - 750мл";"32.00";"true";"43"
"714";"Термос LARA LR04-15 \(черный\) - 600 мл";"32.00";"true";"43"
"715";"Термос LARA LR04-20 \(бежевый\) 420мл";"26.00";"true";"43"
"716";"Термос LARA LR04-21 \(черный\) 500мл";"29.00";"true";"43"
"717";"Термос Mallony SA500M “Командирский», 0,5 л";"28.00";"true";"43"
"718";"Термос для еды, 1 л, нержавеющая сталь, ARIZONE";"48.00";"true";"43"
"719";"Термос для еды, 580 мл, нержавеющая сталь, сталь/синий, ARIZONE";"39.00";"true";"43"
"720";"Термос для еды, 600 мл, нержавеющая сталь, сталь/оранжевый, ARIZONE";"40.00";"true";"43"
"721";"Термос для еды, 600 мл, нержавеющая сталь, сталь/синий, ARIZONE";"40.00";"true";"43"
"722";"Термос универсальный для еды и напитков, 1 л, нержавеющая сталь, ARIZONE";"49.00";"true";"43"
"723";"Термос, 1 л, нержавеющая сталь, ARIZONE";"36.00";"true";"43"
"724";"Термос, 1 л, синий, ARIZONE";"22.00";"true";"43"
"725";"Термос, 1200 мл, нержавеющая сталь, сталь/оранжевый, ARIZONE";"44.00";"true";"43"
"726";"Термос, 1200 мл, нержавеющая сталь, сталь/синий, ARIZONE";"44.00";"true";"43"
"727";"Термос, 500 мл, нержавеющая сталь, ARIZONE";"25.00";"true";"43"
"728";"Чайник электрический LA-4612 L'ORNAY";"29.00";"true";"43"
"729";"Чайник электрический LA-4613 L'ORNAY";"35.00";"true";"43"
"730";"Чайник электрический LA-4622 L'ORNAY Стекло";"58.00";"true";"43"
"731";"Чоппер Centek CT-1391 Red";"40.00";"true";"44"